Mini Project 1 – 326_blog_kv
…
[1] 5.441205

nsim <- 5000 # number of simulations
## code to map through the function.
## the \(i) syntax says to just repeat the generate_samp_mean function
## nsim times
mins <- map_dbl(1:nsim, \(i) generate_samp_min(mu = mu, sigma = sigma, n = n))
## print some of the 5000 mins
## each number represents the sample min from __one__ sample.
mins_df <- tibble(mins)
mins_df

# A tibble: 5,000 × 1
    mins
   <dbl>
 1  5.30
 2  9.18
 3  7.37
 4 10.4 
 5  8.39
 6  9.45
 7  9.06
 8  9.95
 9  8.02
10  6.26
# ℹ 4,990 more rows
…
[1] 10.66192

nsim <- 5000 # number of simulations
## code to map through the function.
## the \(i) syntax says to just repeat the generate_samp_mean function
## nsim times
maxs <- map_dbl(1:nsim, \(i) generate_samp_max(mu = mu, sigma = sigma, n = n))
## print some of the 5000 mins
## each number represents the sample min from __one__ sample.
maxs_df <- tibble(maxs)
maxs_df

# A tibble: 5,000 × 1
    maxs
   <dbl>
 1  11.9
 2  12.3
 3  10.3
 4  12.7
 5  14.5
 6  11.8
 7  10.3
 8  13.9
 9  13.6
10  12.4
# ℹ 4,990 more rows
…
[1] 7.669392

nsim <- 5000 # number of simulations
## code to map through the function.
## the \(i) syntax says to just repeat the generate_samp_mean function
## nsim times
mins <- map_dbl(1:nsim, \(i) generate_samp_min(mu = mu, sigma = sigma, n = n))
## print some of the 5000 mins
## each number represents the sample min from __one__ sample.
mins_df <- tibble(mins)
mins_df

# A tibble: 5,000 × 1
    mins
   <dbl>
 1  7.86
 2  8.57
 3  7.70
 4  8.19
 5  7.59
 6  7.63
 7  8.05
 8  9.77
 9  8.09
10  7.03
# ℹ 4,990 more rows
…
[1] 12.65147

nsim <- 5000 # number of simulations
## code to map through the function.
## the \(i) syntax says to just repeat the generate_samp_mean function
## nsim times
maxs <- map_dbl(1:nsim, \(i) generate_samp_max(mu = mu, sigma = sigma, n = n))
## print some of the 5000 mins
## each number represents the sample min from __one__ sample.
maxs_df <- tibble(mins)
maxs_df

# A tibble: 5,000 × 1
    mins
   <dbl>
 1  7.86
 2  8.57
 3  7.70
 4  8.19
 5  7.59
 6  7.63
 7  8.05
 8  9.77
 9  8.09
10  7.03
# ℹ 4,990 more rows
…
[1] 0.04889386

nsim <- 5000 # number of simulations
## code to map through the function.
## the \(i) syntax says to just repeat the generate_samp_mean function
## nsim times
mins <- map_dbl(1:nsim, \(i) generate_samp_min(mu = mu, sigma = sigma, n = n))
## print some of the 5000 mins
## each number represents the sample min from __one__ sample.
mins_df <- tibble(mins)
mins_df

# A tibble: 5,000 × 1
     mins
    <dbl>
 1 0.678 
 2 0.541 
 3 0.280 
 4 0.0843
 5 0.172 
 6 0.112 
 7 0.148 
 8 0.393 
 9 0.0435
10 0.0112
# ℹ 4,990 more rows
…
[1] 5.342965

nsim <- 5000 # number of simulations
## code to map through the function.
## the \(i) syntax says to just repeat the generate_samp_mean function
## nsim times
maxs <- map_dbl(1:nsim, \(i) generate_samp_max(mu = mu, sigma = sigma, n = n))
## print some of the 5000 mins
## each number represents the sample min from __one__ sample.
maxs_df <- tibble(maxs)
maxs_df

# A tibble: 5,000 × 1
    maxs
   <dbl>
 1  2.28
 2  1.83
 3  2.94
 4  3.89
 5  5.02
 6  3.98
 7  5.88
 8  6.14
 9  3.63
10  4.63
# ℹ 4,990 more rows
…
[1] 0.5133723

nsim <- 5000 # number of simulations
## code to map through the function.
## the \(i) syntax says to just repeat the generate_samp_mean function
## nsim times
mins <- map_dbl(1:nsim, \(i) generate_samp_min(mu = mu, sigma = sigma, n = n))
## print some of the 5000 mins
## each number represents the sample min from __one__ sample.
mins_df <- tibble(mins)
mins_df

# A tibble: 5,000 × 1
    mins
   <dbl>
 1 0.575
 2 0.547
 3 0.555
 4 0.667
 5 0.690
 6 0.731
 7 0.625
 8 0.574
 9 0.654
10 0.793
# ℹ 4,990 more rows
…
[1] 0.9354073

nsim <- 5000 # number of simulations
## code to map through the function.
## the \(i) syntax says to just repeat the generate_samp_mean function
## nsim times
maxs <- map_dbl(1:nsim, \(i) generate_samp_max(mu = mu, sigma = sigma, n = n))
## print some of the 5000 mins
## each number represents the sample min from __one__ sample.
maxs_df <- tibble(mins)
maxs_df

# A tibble: 5,000 × 1
    mins
   <dbl>
 1 0.575
 2 0.547
 3 0.555
 4 0.667
 5 0.690
 6 0.731
 7 0.625
 8 0.574
 9 0.654
10 0.793
# ℹ 4,990 more rows
…
